verif/sha256/dump.vcd
$version Generated by VerilatedVcd $end
$timescale 1ps $end

 $scope module top $end
  $var wire  1 # clk $end
  $var wire 32 . i_w[0] [31:0] $end
  $var wire 32 8 i_w[10] [31:0] $end
  $var wire 32 9 i_w[11] [31:0] $end
  $var wire 32 : i_w[12] [31:0] $end
  $var wire 32 ; i_w[13] [31:0] $end
  $var wire 32 < i_w[14] [31:0] $end
  $var wire 32 = i_w[15] [31:0] $end
  $var wire 32 / i_w[1] [31:0] $end
  $var wire 32 0 i_w[2] [31:0] $end
  $var wire 32 1 i_w[3] [31:0] $end
  $var wire 32 2 i_w[4] [31:0] $end
  $var wire 32 3 i_w[5] [31:0] $end
  $var wire 32 4 i_w[6] [31:0] $end
  $var wire 32 5 i_w[7] [31:0] $end
  $var wire 32 6 i_w[8] [31:0] $end
  $var wire 32 7 i_w[9] [31:0] $end
  $var wire  1 > o_valid $end
  $var wire 32 & out[0] [31:0] $end
  $var wire 32 ' out[1] [31:0] $end
  $var wire 32 ( out[2] [31:0] $end
  $var wire 32 ) out[3] [31:0] $end
  $var wire 32 * out[4] [31:0] $end
  $var wire 32 + out[5] [31:0] $end
  $var wire 32 , out[6] [31:0] $end
  $var wire 32 - out[7] [31:0] $end
  $var wire  1 % ready $end
  $var wire  1 $ rst $end
  $scope module sha256_tb $end
   $var wire  1 ? clk $end
   $var wire  6 d counter [5:0] $end
   $var wire 32 J i_w[0] [31:0] $end
   $var wire 32 T i_w[10] [31:0] $end
   $var wire 32 U i_w[11] [31:0] $end
   $var wire 32 V i_w[12] [31:0] $end
   $var wire 32 W i_w[13] [31:0] $end
   $var wire 32 X i_w[14] [31:0] $end
   $var wire 32 Y i_w[15] [31:0] $end
   $var wire 32 K i_w[1] [31:0] $end
   $var wire 32 L i_w[2] [31:0] $end
   $var wire 32 M i_w[3] [31:0] $end
   $var wire 32 N i_w[4] [31:0] $end
   $var wire 32 O i_w[5] [31:0] $end
   $var wire 32 P i_w[6] [31:0] $end
   $var wire 32 Q i_w[7] [31:0] $end
   $var wire 32 R i_w[8] [31:0] $end
   $var wire 32 S i_w[9] [31:0] $end
   $var wire 32 e letter[0] [31:0] $end
   $var wire 32 f letter[1] [31:0] $end
   $var wire 32 g letter[2] [31:0] $end
   $var wire 32 h letter[3] [31:0] $end
   $var wire 32 i letter[4] [31:0] $end
   $var wire 32 j letter[5] [31:0] $end
   $var wire 32 k letter[6] [31:0] $end
   $var wire 32 l letter[7] [31:0] $end
   $var wire 32 m o_let[0] [31:0] $end
   $var wire 32 n o_let[1] [31:0] $end
   $var wire 32 o o_let[2] [31:0] $end
   $var wire 32 p o_let[3] [31:0] $end
   $var wire 32 q o_let[4] [31:0] $end
   $var wire 32 r o_let[5] [31:0] $end
   $var wire 32 s o_let[6] [31:0] $end
   $var wire 32 t o_let[7] [31:0] $end
   $var wire  1 Z o_valid $end
   $var wire 32 B out[0] [31:0] $end
   $var wire 32 C out[1] [31:0] $end
   $var wire 32 D out[2] [31:0] $end
   $var wire 32 E out[3] [31:0] $end
   $var wire 32 F out[4] [31:0] $end
   $var wire 32 G out[5] [31:0] $end
   $var wire 32 H out[6] [31:0] $end
   $var wire 32 I out[7] [31:0] $end
   $var wire  1 c rdy $end
   $var wire  1 A ready $end
   $var wire  1 @ rst $end
   $var wire  1 a valid $end
   $var wire  1 b valid_r $end
   $var wire 32 [ win[0] [31:0] $end
   $var wire 32 \ win[1] [31:0] $end
   $var wire 32 ] win[2] [31:0] $end
   $var wire 32 ^ win[3] [31:0] $end
   $var wire 32 _ wout [31:0] $end
   $var wire  1 ` wvalid $end
   $scope module sha_inst $end
    $var wire 32 7! S0 [31:0] $end
    $var wire 32 ?! S0_1 [31:0] $end
    $var wire 32 3! S1 [31:0] $end
    $var wire 32 :! S1_1 [31:0] $end
    $var wire 32 ^! T1_4 [31:0] $end
    $var wire 32 L! T2_2 [31:0] $end
    $var wire 32 V! T2_3 [31:0] $end
    $var wire 32 _! T2_4 [31:0] $end
    $var wire 32 4! ch [31:0] $end
    $var wire 32 ;! ch_1 [31:0] $end
    $var wire 32 I! ch_2 [31:0] $end
    $var wire  1 u clk $end
    $var wire 32 H! hkS_2 [31:0] $end
    $var wire 32 9! hk_1 [31:0] $end
    $var wire  6 !! i_counter [5:0] $end
    $var wire 32 w i_letters[0] [31:0] $end
    $var wire 32 x i_letters[1] [31:0] $end
    $var wire 32 y i_letters[2] [31:0] $end
    $var wire 32 z i_letters[3] [31:0] $end
    $var wire 32 { i_letters[4] [31:0] $end
    $var wire 32 | i_letters[5] [31:0] $end
    $var wire 32 } i_letters[6] [31:0] $end
    $var wire 32 ~ i_letters[7] [31:0] $end
    $var wire  1 &! i_ready $end
    $var wire 32 "! i_w[0] [31:0] $end
    $var wire 32 #! i_w[1] [31:0] $end
    $var wire 32 $! i_w[2] [31:0] $end
    $var wire 32 %! i_w[3] [31:0] $end
    $var wire 32 2! k [31:0] $end
    $var wire 32 A! letters_1[0] [31:0] $end
    $var wire 32 B! letters_1[1] [31:0] $end
    $var wire 32 C! letters_1[2] [31:0] $end
    $var wire 32 D! letters_1[3] [31:0] $end
    $var wire 32 E! letters_1[4] [31:0] $end
    $var wire 32 F! letters_1[5] [31:0] $end
    $var wire 32 G! letters_1[6] [31:0] $end
    $var wire 32 M! letters_2[0] [31:0] $end
    $var wire 32 N! letters_2[1] [31:0] $end
    $var wire 32 O! letters_2[2] [31:0] $end
    $var wire 32 P! letters_2[3] [31:0] $end
    $var wire 32 Q! letters_2[4] [31:0] $end
    $var wire 32 R! letters_2[5] [31:0] $end
    $var wire 32 S! letters_2[6] [31:0] $end
    $var wire 32 W! letters_3[0] [31:0] $end
    $var wire 32 X! letters_3[1] [31:0] $end
    $var wire 32 Y! letters_3[2] [31:0] $end
    $var wire 32 Z! letters_3[3] [31:0] $end
    $var wire 32 [! letters_3[4] [31:0] $end
    $var wire 32 \! letters_3[5] [31:0] $end
    $var wire 32 ]! letters_3[6] [31:0] $end
    $var wire 32 `! letters_4[0] [31:0] $end
    $var wire 32 a! letters_4[1] [31:0] $end
    $var wire 32 b! letters_4[2] [31:0] $end
    $var wire 32 c! letters_4[3] [31:0] $end
    $var wire 32 d! letters_4[4] [31:0] $end
    $var wire 32 e! letters_4[5] [31:0] $end
    $var wire 32 f! letters_4[6] [31:0] $end
    $var wire 32 g! letters_5[0] [31:0] $end
    $var wire 32 h! letters_5[1] [31:0] $end
    $var wire 32 i! letters_5[2] [31:0] $end
    $var wire 32 j! letters_5[3] [31:0] $end
    $var wire 32 k! letters_5[4] [31:0] $end
    $var wire 32 l! letters_5[5] [31:0] $end
    $var wire 32 m! letters_5[6] [31:0] $end
    $var wire 32 n! letters_5[7] [31:0] $end
    $var wire 32 8! maj [31:0] $end
    $var wire 32 @! maj_1 [31:0] $end
    $var wire 32 '! o_letters[0] [31:0] $end
    $var wire 32 (! o_letters[1] [31:0] $end
    $var wire 32 )! o_letters[2] [31:0] $end
    $var wire 32 *! o_letters[3] [31:0] $end
    $var wire 32 +! o_letters[4] [31:0] $end
    $var wire 32 ,! o_letters[5] [31:0] $end
    $var wire 32 -! o_letters[6] [31:0] $end
    $var wire 32 .! o_letters[7] [31:0] $end
    $var wire  1 /! o_letters_valid $end
    $var wire 32 0! o_w [31:0] $end
    $var wire  1 1! o_w_valid $end
    $var wire  5 o! ready [4:0] $end
    $var wire  1 v rst $end
    $var wire 32 5! s0 [31:0] $end
    $var wire 32 <! s0_1 [31:0] $end
    $var wire 32 6! s1 [31:0] $end
    $var wire 32 =! s1_1 [31:0] $end
    $var wire 32 T! sch_3 [31:0] $end
    $var wire 32 J! ss_2 [31:0] $end
    $var wire 32 U! w_3 [31:0] $end
    $var wire 32 >! wsum_1 [31:0] $end
    $var wire 32 K! wsum_2 [31:0] $end
    $scope module inst_S0 $end
     $var wire 32 s! rot_13 [31:0] $end
     $var wire 32 r! rot_2 [31:0] $end
     $var wire 32 t! rot_22 [31:0] $end
     $var wire 32 p! x [31:0] $end
     $var wire 32 q! y [31:0] $end
    $upscope $end
    $scope module inst_S1 $end
     $var wire 32 x! rot_11 [31:0] $end
     $var wire 32 y! rot_25 [31:0] $end
     $var wire 32 w! rot_6 [31:0] $end
     $var wire 32 u! x [31:0] $end
     $var wire 32 v! y [31:0] $end
    $upscope $end
    $scope module inst_ch $end
     $var wire 32 z! i_x [31:0] $end
     $var wire 32 {! i_y [31:0] $end
     $var wire 32 |! i_z [31:0] $end
     $var wire 32 }! o [31:0] $end
    $upscope $end
    $scope module inst_k $end
     $var wire  6 ~! i [5:0] $end
     $var wire 32 !" k [31:0] $end
    $upscope $end
    $scope module inst_maj $end
     $var wire 32 "" i_x [31:0] $end
     $var wire 32 #" i_y [31:0] $end
     $var wire 32 $" i_z [31:0] $end
     $var wire 32 %" o [31:0] $end
    $upscope $end
    $scope module inst_s0 $end
     $var wire 32 )" rot_18 [31:0] $end
     $var wire 32 (" rot_7 [31:0] $end
     $var wire 32 *" shift_3 [31:0] $end
     $var wire 32 &" x [31:0] $end
     $var wire 32 '" y [31:0] $end
    $upscope $end
    $scope module inst_s1 $end
     $var wire 32 -" rot_17 [31:0] $end
     $var wire 32 ." rot_19 [31:0] $end
     $var wire 32 /" shift_10 [31:0] $end
     $var wire 32 +" x [31:0] $end
     $var wire 32 ," y [31:0] $end
    $upscope $end
    $scope module unnamedblk1 $end
     $var wire 32 0" i [31:0] $end
    $upscope $end
    $scope module unnamedblk2 $end
     $var wire 32 1" i [31:0] $end
    $upscope $end
    $scope module unnamedblk3 $end
     $var wire 32 2" i [31:0] $end
    $upscope $end
    $scope module unnamedblk4 $end
     $var wire 32 3" i [31:0] $end
    $upscope $end
    $scope module unnamedblk5 $end
     $var wire 32 4" i [31:0] $end
    $upscope $end
    $scope module unnamedblk6 $end
     $var wire 32 5" i [31:0] $end
    $upscope $end
   $upscope $end
   $scope module unnamedblk1 $end
    $var wire 32 6" i [31:0] $end
   $upscope $end
   $scope module unnamedblk2 $end
    $var wire 32 7" i [31:0] $end
   $upscope $end
  $upscope $end
 $upscope $end
$enddefinitions $end


#0
1#
0$
0%
b01101010000010011110011001100111 &
b10111011011001111010111010000101 '
b00111100011011101111001101110010 (
b10100101010011111111010100111010 )
b01010001000011100101001001111111 *
b10011011000001010110100010001100 +
b00011111100000111101100110101011 ,
b01011011111000001100110100011001 -
b01100001011000100110001110000000 .
b00000000000000000000000000000000 /
b00000000000000000000000000000000 0
b00000000000000000000000000000000 1
b00000000000000000000000000000000 2
b00000000000000000000000000000000 3
b00000000000000000000000000000000 4
b00000000000000000000000000000000 5
b00000000000000000000000000000000 6
b00000000000000000000000000000000 7
b00000000000000000000000000000000 8
b00000000000000000000000000000000 9
b00000000000000000000000000000000 :
b00000000000000000000000000000000 ;
b00000000000000000000000000000000 <
b00000000000000000000000000011000 =
0>
1?
0@
0A
b01101010000010011110011001100111 B
b10111011011001111010111010000101 C
b00111100011011101111001101110010 D
b10100101010011111111010100111010 E
b01010001000011100101001001111111 F
b10011011000001010110100010001100 G
b00011111100000111101100110101011 H
b01011011111000001100110100011001 I
b01100001011000100110001110000000 J
b00000000000000000000000000000000 K
b00000000000000000000000000000000 L
b00000000000000000000000000000000 M
b00000000000000000000000000000000 N
b00000000000000000000000000000000 O
b00000000000000000000000000000000 P
b00000000000000000000000000000000 Q
b00000000000000000000000000000000 R
b00000000000000000000000000000000 S
b00000000000000000000000000000000 T
b00000000000000000000000000000000 U
b00000000000000000000000000000000 V
b00000000000000000000000000000000 W
b00000000000000000000000000000000 X
b00000000000000000000000000011000 Y
0Z
b00000000000000000000000000000000 [
b00000000000000000000000000000000 \
b00000000000000000000000000000000 ]
b00000000000000000000000000000000 ^
b00000000000000000000000000000000 _
0`
0a
0b
0c
b000000 d
b00000000000000000000000000000000 e
b00000000000000000000000000000000 f
b00000000000000000000000000000000 g
b00000000000000000000000000000000 h
b00000000000000000000000000000000 i
b00000000000000000000000000000000 j
b00000000000000000000000000000000 k
b00000000000000000000000000000000 l
b00000000000000000000000000000000 m
b00000000000000000000000000000000 n
b00000000000000000000000000000000 o
b00000000000000000000000000000000 p
b00000000000000000000000000000000 q
b00000000000000000000000000000000 r
b00000000000000000000000000000000 s
b00000000000000000000000000000000 t
1u
0v
b00000000000000000000000000000000 w
b00000000000000000000000000000000 x
b00000000000000000000000000000000 y
b00000000000000000000000000000000 z
b00000000000000000000000000000000 {
b00000000000000000000000000000000 |
b00000000000000000000000000000000 }
b00000000000000000000000000000000 ~
b000000 !!
b00000000000000000000000000000000 "!
b00000000000000000000000000000000 #!
b00000000000000000000000000000000 $!
b00000000000000000000000000000000 %!
0&!
b00000000000000000000000000000000 '!
b00000000000000000000000000000000 (!
b00000000000000000000000000000000 )!
b00000000000000000000000000000000 *!
b00000000000000000000000000000000 +!
b00000000000000000000000000000000 ,!
b00000000000000000000000000000000 -!
b00000000000000000000000000000000 .!
0/!
b00000000000000000000000000000000 0!
01!
b01000010100010100010111110011000 2!
b00000000000000000000000000000000 3!
b00000000000000000000000000000000 4!
b00000000000000000000000000000000 5!
b00000000000000000000000000000000 6!
b00000000000000000000000000000000 7!
b00000000000000000000000000000000 8!
b01000010100010100010111110011000 9!
b00000000000000000000000000000000 :!
b00000000000000000000000000000000 ;!
b00000000000000000000000000000000 <!
b00000000000000000000000000000000 =!
b00000000000000000000000000000000 >!
b00000000000000000000000000000000 ?!
b00000000000000000000000000000000 @!
b00000000000000000000000000000000 A!
b00000000000000000000000000000000 B!
b00000000000000000000000000000000 C!
b00000000000000000000000000000000 D!
b00000000000000000000000000000000 E!
b00000000000000000000000000000000 F!
b00000000000000000000000000000000 G!
b00000000000000000000000000000000 H!
b00000000000000000000000000000000 I!
b00000000000000000000000000000000 J!
b00000000000000000000000000000000 K!
b00000000000000000000000000000000 L!
b00000000000000000000000000000000 M!
b00000000000000000000000000000000 N!
b00000000000000000000000000000000 O!
b00000000000000000000000000000000 P!
b00000000000000000000000000000000 Q!
b00000000000000000000000000000000 R!
b00000000000000000000000000000000 S!
b00000000000000000000000000000000 T!
b00000000000000000000000000000000 U!
b00000000000000000000000000000000 V!
b00000000000000000000000000000000 W!
b00000000000000000000000000000000 X!
b00000000000000000000000000000000 Y!
b00000000000000000000000000000000 Z!
b00000000000000000000000000000000 [!
b00000000000000000000000000000000 \!
b00000000000000000000000000000000 ]!
b00000000000000000000000000000000 ^!
b00000000000000000000000000000000 _!
b00000000000000000000000000000000 `!
b00000000000000000000000000000000 a!
b00000000000000000000000000000000 b!
b00000000000000000000000000000000 c!
b00000000000000000000000000000000 d!
b00000000000000000000000000000000 e!
b00000000000000000000000000000000 f!
b00000000000000000000000000000000 g!
b00000000000000000000000000000000 h!
b00000000000000000000000000000000 i!
b00000000000000000000000000000000 j!
b00000000000000000000000000000000 k!
b00000000000000000000000000000000 l!
b00000000000000000000000000000000 m!
b00000000000000000000000000000000 n!
b00000 o!
b00000000000000000000000000000000 p!
b00000000000000000000000000000000 q!
b00000000000000000000000000000000 r!
b00000000000000000000000000000000 s!
b00000000000000000000000000000000 t!
b00000000000000000000000000000000 u!
b00000000000000000000000000000000 v!
b00000000000000000000000000000000 w!
b00000000000000000000000000000000 x!
b00000000000000000000000000000000 y!
b00000000000000000000000000000000 z!
b00000000000000000000000000000000 {!
b00000000000000000000000000000000 |!
b00000000000000000000000000000000 }!
b000000 ~!
b01000010100010100010111110011000 !"
b00000000000000000000000000000000 ""
b00000000000000000000000000000000 #"
b00000000000000000000000000000000 $"
b00000000000000000000000000000000 %"
b00000000000000000000000000000000 &"
b00000000000000000000000000000000 '"
b00000000000000000000000000000000 ("
b00000000000000000000000000000000 )"
b00000000000000000000000000000000 *"
b00000000000000000000000000000000 +"
b00000000000000000000000000000000 ,"
b00000000000000000000000000000000 -"
b00000000000000000000000000000000 ."
b00000000000000000000000000000000 /"
b00000000000000000000000000000000 0"
b00000000000000000000000000000000 1"
b00000000000000000000000000000000 2"
b00000000000000000000000000000000 3"
b00000000000000000000000000000000 4"
b00000000000000000000000000000101 5"
b00000000000000000000000000000000 6"
b00000000000000000000000000000000 7"
#2000
1$
1@
b01100001011000100110001110000000 [
b01101010000010011110011001100111 e
b10111011011001111010111010000101 f
b00111100011011101111001101110010 g
b10100101010011111111010100111010 h
b01010001000011100101001001111111 i
b10011011000001010110100010001100 j
b00011111100000111101100110101011 k
b01011011111000001100110100011001 l
1v
b01101010000010011110011001100111 w
b10111011011001111010111010000101 x
b00111100011011101111001101110010 y
b10100101010011111111010100111010 z
b01010001000011100101001001111111 {
b10011011000001010110100010001100 |
b00011111100000111101100110101011 }
b01011011111000001100110100011001 ~
b01100001011000100110001110000000 "!
b00110101100001110010011100101011 3!
b00011111100001011100100110001100 4!
b11001110001000001011010001111110 7!
b00111010011011111110011001100111 8!
b00000000000000000000000000000000 9!
b01101010000010011110011001100111 p!
b11001110001000001011010001111110 q!
b11011010100000100111100110011001 r!
b00110011001110110101000001001111 s!
b00100111100110011001110110101000 t!
b01010001000011100101001001111111 u!
b00110101100001110010011100101011 v!
b11111101010001000011100101001001 w!
b01001111111010100010000111001010 x!
b10000111001010010011111110101000 y!
b01010001000011100101001001111111 z!
b10011011000001010110100010001100 {!
b00011111100000111101100110101011 |!
b00011111100001011100100110001100 }!
b01101010000010011110011001100111 ""
b10111011011001111010111010000101 #"
b00111100011011101111001101110010 $"
b00111010011011111110011001100111 %"
b00000000000000000000000000000111 0"
b00000000000000000000000000000111 1"
b00000000000000000000000000000111 2"
b00000000000000000000000000000111 3"
b00000000000000000000000000001000 4"
b00000000000000000000000000010000 6"
b00000000000000000000000000111111 7"
#5000
0#
0?
0u
#10000
1#
0$
1?
0@
1u
0v
#12000
1%
1A
1c
1&!
#15000
0#
0?
0u
#20000
1#
0%
1?
0A
0c
1u
0&!
b10011110011010101111110010110001 9!
b00110101100001110010011100101011 :!
b00011111100001011100100110001100 ;!
b01100001011000100110001110000000 >!
b11001110001000001011010001111110 ?!
b00111010011011111110011001100111 @!
b01101010000010011110011001100111 A!
b10111011011001111010111010000101 B!
b00111100011011101111001101110010 C!
b10100101010011111111010100111010 D!
b01010001000011100101001001111111 E!
b10011011000001010110100010001100 F!
b00011111100000111101100110101011 G!
b00001 o!
#25000
0#
0?
0u
#30000
1#
1?
1u
b11010011111100100010001111011100 H!
b00011111100001011100100110001100 I!
b01100001011000100110001110000000 K!
b00001000100100001001101011100101 L!
b01101010000010011110011001100111 M!
b10111011011001111010111010000101 N!
b00111100011011101111001101110010 O!
b10100101010011111111010100111010 P!
b01010001000011100101001001111111 Q!
b10011011000001010110100010001100 R!
b00011111100000111101100110101011 S!
b00010 o!
#35000
0#
0?
0u
#40000
1#
1?
b01100001011000100110001110000000 _
1`
1u
b01100001011000100110001110000000 0!
11!
b11110011011101111110110101101000 T!
b01100001011000100110001110000000 U!
b00001000100100001001101011100101 V!
b01101010000010011110011001100111 W!
b10111011011001111010111010000101 X!
b00111100011011101111001101110010 Y!
b10100101010011111111010100111010 Z!
b01010001000011100101001001111111 [!
b10011011000001010110100010001100 \!
b00011111100000111101100110101011 ]!
b00100 o!
#45000
0#
0?
0u
#50000
1#
1?
0`
1u
01!
b01010100110110100101000011101000 ^!
b00001000100100001001101011100101 _!
b01101010000010011110011001100111 `!
b10111011011001111010111010000101 a!
b00111100011011101111001101110010 b!
b10100101010011111111010100111010 c!
b01010001000011100101001001111111 d!
b10011011000001010110100010001100 e!
b00011111100000111101100110101011 f!
b01000 o!
#55000
0#
0?
0u
#60000
1#
b11000111011101001101001000110100 &
b00100101011100011001010011101100 '
b11110111110101101010000111110111 (
b11100001101111101110100010101100 )
b01001011001110001001100010100001 *
b11101100000100111011101100001011 +
b10111010100010010100001000110111 ,
b01111011011001001010011011000100 -
1?
b11000111011101001101001000110100 B
b00100101011100011001010011101100 C
b11110111110101101010000111110111 D
b11100001101111101110100010101100 E
b01001011001110001001100010100001 F
b11101100000100111011101100001011 G
b10111010100010010100001000110111 H
b01111011011001001010011011000100 I
1a
b01011101011010101110101111001101 m
b01101010000010011110011001100111 n
b10111011011001111010111010000101 o
b00111100011011101111001101110010 p
b11111010001010100100011000100010 q
b01010001000011100101001001111111 r
b10011011000001010110100010001100 s
b00011111100000111101100110101011 t
1u
b01011101011010101110101111001101 '!
b01101010000010011110011001100111 (!
b10111011011001111010111010000101 )!
b00111100011011101111001101110010 *!
b11111010001010100100011000100010 +!
b01010001000011100101001001111111 ,!
b10011011000001010110100010001100 -!
b00011111100000111101100110101011 .!
1/!
b01011101011010101110101111001101 g!
b01101010000010011110011001100111 h!
b10111011011001111010111010000101 i!
b00111100011011101111001101110010 j!
b11111010001010100100011000100010 k!
b01010001000011100101001001111111 l!
b10011011000001010110100010001100 m!
b00011111100000111101100110101011 n!
b10000 o!
#65000
0#
0?
0u
#70000
1#
1?
b00000000000000000000000000000000 [
0a
1b
1c
b000001 d
b01011101011010101110101111001101 e
b01101010000010011110011001100111 f
b10111011011001111010111010000101 g
b00111100011011101111001101110010 h
b11111010001010100100011000100010 i
b01010001000011100101001001111111 j
b10011011000001010110100010001100 k
b00011111100000111101100110101011 l
1u
b01011101011010101110101111001101 w
b01101010000010011110011001100111 x
b10111011011001111010111010000101 y
b00111100011011101111001101110010 z
b11111010001010100100011000100010 {
b01010001000011100101001001111111 |
b10011011000001010110100010001100 }
b00011111100000111101100110101011 ~
b000001 !!
b00000000000000000000000000000000 "!
1&!
0/!
b01110001001101110100010010010001 2!
b01011010100101001111110100101101 3!
b01010001000011110110101010101110 4!
b10100010100111110110010011010001 7!
b01111011011010111110111011000101 8!
b00000 o!
b01011101011010101110101111001101 p!
b10100010100111110110010011010001 q!
b01010111010110101011101011110011 r!
b01011110011010101110101101010111 s!
b10101011101011110011010101110101 t!
b11111010001010100100011000100010 u!
b01011010100101001111110100101101 v!
b10001011111010001010100100011000 w!
b11000100010111110100010101001000 x!
b00010101001000110001000101111101 y!
b11111010001010100100011000100010 z!
b01010001000011100101001001111111 {!
b10011011000001010110100010001100 |!
b01010001000011110110101010101110 }!
b000001 ~!
b01110001001101110100010010010001 !"
b01011101011010101110101111001101 ""
b01101010000010011110011001100111 #"
b10111011011001111010111010000101 $"
b01111011011010111110111011000101 %"
#75000
0#
0?
0u
#80000
1#
1?
0b
0c
1u
0&!
b10010000101110110001111000111100 9!
b01011010100101001111110100101101 :!
b01010001000011110110101010101110 ;!
b00000000000000000000000000000000 >!
b10100010100111110110010011010001 ?!
b01111011011010111110111011000101 @!
b01011101011010101110101111001101 A!
b01101010000010011110011001100111 B!
b10111011011001111010111010000101 C!
b00111100011011101111001101110010 D!
b11111010001010100100011000100010 E!
b01010001000011100101001001111111 F!
b10011011000001010110100010001100 G!
b00001 o!
#85000
0#
0?
0u
#90000
1#
1?
1u
b11101011010100000001101101101001 H!
b01010001000011110110101010101110 I!
b00000000000000000000000000000000 K!
b00011110000010110101001110010110 L!
b01011101011010101110101111001101 M!
b01101010000010011110011001100111 N!
b10111011011001111010111010000101 O!
b00111100011011101111001101110010 P!
b11111010001010100100011000100010 Q!
b01010001000011100101001001111111 R!
b10011011000001010110100010001100 S!
b00010 o!
#95000
0#
0?
0u
#100000
1#
1?
b00000000000000000000000000000000 _
1`
1u
b00000000000000000000000000000000 0!
11!
b00111100010111111000011000010111 T!
b00000000000000000000000000000000 U!
b00011110000010110101001110010110 V!
b01011101011010101110101111001101 W!
b01101010000010011110011001100111 X!
b10111011011001111010111010000101 Y!
b00111100011011101111001101110010 Z!
b11111010001010100100011000100010 [!
b01010001000011100101001001111111 \!
b10011011000001010110100010001100 ]!
b00100 o!
#105000
0#
0?
0u
#110000
1#
1?
0`
1u
01!
b00111100010111111000011000010111 ^!
b00011110000010110101001110010110 _!
b01011101011010101110101111001101 `!
b01101010000010011110011001100111 a!
b10111011011001111010111010000101 b!
b00111100011011101111001101110010 c!
b11111010001010100100011000100010 d!
b01010001000011100101001001111111 e!
b10011011000001010110100010001100 f!
b01000 o!
#115000
0#
0?
0u
#120000
1#
b11000100011101001100000000010100 &
b00011000110100101001101001010010 '
b10100110011110001101100111011001 (
b01100000101101111010001110111111 )
b11001001110111001100110000001000 *
b10010101001011111010111010101110 +
b01110000100100100010110000101010 ,
b11110110111001100011010110100101 -
1?
b11000100011101001100000000010100 B
b00011000110100101001101001010010 C
b10100110011110001101100111011001 D
b01100000101101111010001110111111 E
b11001001110111001100110000001000 F
b10010101001011111010111010101110 G
b01110000100100100010110000101010 H
b11110110111001100011010110100101 I
1a
b01011010011010101101100110101101 m
b01011101011010101110101111001101 n
b01101010000010011110011001100111 o
b10111011011001111010111010000101 p
b01111000110011100111100110001001 q
b11111010001010100100011000100010 r
b01010001000011100101001001111111 s
b10011011000001010110100010001100 t
1u
b01011010011010101101100110101101 '!
b01011101011010101110101111001101 (!
b01101010000010011110011001100111 )!
b10111011011001111010111010000101 *!
b01111000110011100111100110001001 +!
b11111010001010100100011000100010 ,!
b01010001000011100101001001111111 -!
b10011011000001010110100010001100 .!
1/!
b01011010011010101101100110101101 g!
b01011101011010101110101111001101 h!
b01101010000010011110011001100111 i!
b10111011011001111010111010000101 j!
b01111000110011100111100110001001 k!
b11111010001010100100011000100010 l!
b01010001000011100101001001111111 m!
b10011011000001010110100010001100 n!
b10000 o!
#125000
0#
0?
0u
#130000
1#
1?
0a
1b
1c
b000010 d
b01011010011010101101100110101101 e
b01011101011010101110101111001101 f
b01101010000010011110011001100111 g
b10111011011001111010111010000101 h
b01111000110011100111100110001001 i
b11111010001010100100011000100010 j
b01010001000011100101001001111111 k
b10011011000001010110100010001100 l
1u
b01011010011010101101100110101101 w
b01011101011010101110101111001101 x
b01101010000010011110011001100111 y
b10111011011001111010111010000101 z
b01111000110011100111100110001001 {
b11111010001010100100011000100010 |
b01010001000011100101001001111111 }
b10011011000001010110100010001100 ~
b000010 !!
1&!
0/!
b10110101110000001111101111001111 2!
b01110011111100001110010010010101 3!
b01111001000010100100001001110110 4!
b00110000100101101101000001010100 7!
b01011010011010101110101111101101 8!
b00000 o!
b01011010011010101101100110101101 p!
b00110000100101101101000001010100 q!
b01010110100110101011011001101011 r!
b11001101011010101101001101010110 s!
b10101011011001101011010101101001 t!
b01111000110011100111100110001001 u!
b01110011111100001110010010010101 v!
b00100101111000110011100111100110 w!
b00110001001011110001100111001111 x!
b01100111001111001100010010111100 y!
b01111000110011100111100110001001 z!
b11111010001010100100011000100010 {!
b01010001000011100101001001111111 |!
b01111001000010100100001001110110 }!
b000010 ~!
b10110101110000001111101111001111 !"
b01011010011010101101100110101101 ""
b01011101011010101110101111001101 #"
b01101010000010011110011001100111 $"
b01011010011010101110101111101101 %"
#135000
0#
0?
0u
#140000
1#
1?
0b
0c
1u
0&!
b01010000110001100110010001011011 9!
b01110011111100001110010010010101 :!
b01111001000010100100001001110110 ;!
b00110000100101101101000001010100 ?!
b01011010011010101110101111101101 @!
b01011010011010101101100110101101 A!
b01011101011010101110101111001101 B!
b01101010000010011110011001100111 C!
b10111011011001111010111010000101 D!
b01111000110011100111100110001001 E!
b11111010001010100100011000100010 F!
b01010001000011100101001001111111 G!
b00001 o!
#145000
0#
0?
0u
#150000
1#
1?
1u
b11000100101101110100100011110000 H!
b01111001000010100100001001110110 I!
b10001011000000011011110001000001 L!
b01011010011010101101100110101101 M!
b01011101011010101110101111001101 N!
b01101010000010011110011001100111 O!
b10111011011001111010111010000101 P!
b01111000110011100111100110001001 Q!
b11111010001010100100011000100010 R!
b01010001000011100101001001111111 S!
b00010 o!
#155000
0#
0?
0u
#160000
1#
1?
1`
1u
11!
b00111101110000011000101101100110 T!
b10001011000000011011110001000001 V!
b01011010011010101101100110101101 W!
b01011101011010101110101111001101 X!
b01101010000010011110011001100111 Y!
b10111011011001111010111010000101 Z!
b01111000110011100111100110001001 [!
b11111010001010100100011000100010 \!
b01010001000011100101001001111111 ]!
b00100 o!
#165000
0#
0?
0u
#170000
1#
1?
0`
1u
01!
b00111101110000011000101101100110 ^!
b10001011000000011011110001000001 _!
b01011010011010101101100110101101 `!
b01011101011010101110101111001101 a!
b01101010000010011110011001100111 b!
b10111011011001111010111010000101 c!
b01111000110011100111100110001001 d!
b11111010001010100100011000100010 e!
b01010001000011100101001001111111 f!
b01000 o!
#175000
0#
0?
0u
#180000
1#
b00110010110011010010111000001110 &
b00010101110100101000100000110010 '
b10011001110110011101111100111111 (
b00001111010110011101101110100001 )
b01001010001101111000110001101010 *
b00010011110100111110001000010101 +
b00011001101011100001111111001101 ,
b10101100111011110001111110011000 -
1?
b00110010110011010010111000001110 B
b00010101110100101000100000110010 C
b10011001110110011101111100111111 D
b00001111010110011101101110100001 E
b01001010001101111000110001101010 F
b00010011110100111110001000010101 G
b00011001101011100001111111001101 H
b10101100111011110001111110011000 I
1a
b11001000110000110100011110100111 m
b01011010011010101101100110101101 n
b01011101011010101110101111001101 o
b01101010000010011110011001100111 p
b11111001001010010011100111101011 q
b01111000110011100111100110001001 r
b11111010001010100100011000100010 s
b01010001000011100101001001111111 t
1u
b11001000110000110100011110100111 '!
b01011010011010101101100110101101 (!
b01011101011010101110101111001101 )!
b01101010000010011110011001100111 *!
b11111001001010010011100111101011 +!
b01111000110011100111100110001001 ,!
b11111010001010100100011000100010 -!
b01010001000011100101001001111111 .!
1/!
b11001000110000110100011110100111 g!
b01011010011010101101100110101101 h!
b01011101011010101110101111001101 i!
b01101010000010011110011001100111 j!
b11111001001010010011100111101011 k!
b01111000110011100111100110001001 l!
b11111010001010100100011000100010 m!
b01010001000011100101001001111111 n!
b10000 o!
#185000
0#
0?
0u
